 Number of BODIES (nbodies): 1 
   Number of SHELLS: 1 
   Number of FACES: 8 
   Number of LOOPS: 8 
   Number of EDGES: 20 
   Number of NODES: 6 
          LOOP ID: 1
            EDGE ID: 1
 Range = 0.000000, 1.570796, 0.000000, 0.000000 
              NODE ID: 1 
                 (x, y, z) = (0.000000, 0.000000, 0.025400) 
            EDGE ID: 2
 Range = 0.000000, 1.570796, 0.000000, 0.000000 
              NODE ID: 2 
                 (x, y, z) = (0.000000, 0.025400, 0.000000) 
              NODE ID: 1 
                 (x, y, z) = (0.000000, 0.000000, 0.025400) 
            EDGE ID: 3
 Range = 1.570796, 3.141593, 0.000000, 0.000000 
              NODE ID: 2 
                 (x, y, z) = (0.000000, 0.025400, 0.000000) 
              NODE ID: 3 
                 (x, y, z) = (-0.025400, 0.000000, 0.000000) 
            EDGE ID: 4
 Range = 0.000000, 1.570796, 0.000000, 0.000000 
              NODE ID: 3 
                 (x, y, z) = (-0.025400, 0.000000, 0.000000) 
              NODE ID: 1 
                 (x, y, z) = (0.000000, 0.000000, 0.025400) 
          LOOP ID: 2
            EDGE ID: 5
 Range = 0.000000, 1.570796, 0.000000, 0.000000 
              NODE ID: 1 
                 (x, y, z) = (0.000000, 0.000000, 0.025400) 
            EDGE ID: 4
 Range = 0.000000, 1.570796, 0.000000, 0.000000 
              NODE ID: 3 
                 (x, y, z) = (-0.025400, 0.000000, 0.000000) 
              NODE ID: 1 
                 (x, y, z) = (0.000000, 0.000000, 0.025400) 
            EDGE ID: 6
 Range = 3.141593, 4.712389, 0.000000, 0.000000 
              NODE ID: 3 
                 (x, y, z) = (-0.025400, 0.000000, 0.000000) 
              NODE ID: 4 
                 (x, y, z) = (-0.000000, -0.025400, 0.000000) 
            EDGE ID: 7
 Range = 0.000000, 1.570796, 0.000000, 0.000000 
              NODE ID: 4 
                 (x, y, z) = (-0.000000, -0.025400, 0.000000) 
              NODE ID: 1 
                 (x, y, z) = (0.000000, 0.000000, 0.025400) 
          LOOP ID: 3
            EDGE ID: 8
 Range = 0.000000, 1.570796, 0.000000, 0.000000 
              NODE ID: 1 
                 (x, y, z) = (0.000000, 0.000000, 0.025400) 
            EDGE ID: 7
 Range = 0.000000, 1.570796, 0.000000, 0.000000 
              NODE ID: 4 
                 (x, y, z) = (-0.000000, -0.025400, 0.000000) 
              NODE ID: 1 
                 (x, y, z) = (0.000000, 0.000000, 0.025400) 
            EDGE ID: 9
 Range = 4.712389, 6.283185, 0.000000, 0.000000 
              NODE ID: 4 
                 (x, y, z) = (-0.000000, -0.025400, 0.000000) 
              NODE ID: 5 
                 (x, y, z) = (0.025400, 0.000000, 0.000000) 
            EDGE ID: 10
 Range = 1.570796, 3.141593, 0.000000, 0.000000 
              NODE ID: 5 
                 (x, y, z) = (0.025400, 0.000000, 0.000000) 
              NODE ID: 1 
                 (x, y, z) = (0.000000, 0.000000, 0.025400) 
          LOOP ID: 4
            EDGE ID: 9
 Range = 4.712389, 6.283185, 0.000000, 0.000000 
              NODE ID: 4 
                 (x, y, z) = (-0.000000, -0.025400, 0.000000) 
              NODE ID: 5 
                 (x, y, z) = (0.025400, 0.000000, 0.000000) 
            EDGE ID: 11
 Range = 4.712389, 6.283185, 0.000000, 0.000000 
              NODE ID: 6 
                 (x, y, z) = (0.000000, 0.000000, -0.025400) 
              NODE ID: 4 
                 (x, y, z) = (-0.000000, -0.025400, 0.000000) 
            EDGE ID: 12
 Range = 0.000000, 1.570796, 0.000000, 0.000000 
              NODE ID: 6 
                 (x, y, z) = (0.000000, 0.000000, -0.025400) 
            EDGE ID: 13
 Range = 0.000000, 1.570796, 0.000000, 0.000000 
              NODE ID: 6 
                 (x, y, z) = (0.000000, 0.000000, -0.025400) 
              NODE ID: 5 
                 (x, y, z) = (0.025400, 0.000000, 0.000000) 
          LOOP ID: 5
            EDGE ID: 3
 Range = 1.570796, 3.141593, 0.000000, 0.000000 
              NODE ID: 2 
                 (x, y, z) = (0.000000, 0.025400, 0.000000) 
              NODE ID: 3 
                 (x, y, z) = (-0.025400, 0.000000, 0.000000) 
            EDGE ID: 14
 Range = 4.712389, 6.283185, 0.000000, 0.000000 
              NODE ID: 6 
                 (x, y, z) = (0.000000, 0.000000, -0.025400) 
              NODE ID: 2 
                 (x, y, z) = (0.000000, 0.025400, 0.000000) 
            EDGE ID: 15
 Range = 0.000000, 1.570796, 0.000000, 0.000000 
              NODE ID: 6 
                 (x, y, z) = (0.000000, 0.000000, -0.025400) 
            EDGE ID: 16
 Range = 4.712389, 6.283185, 0.000000, 0.000000 
              NODE ID: 6 
                 (x, y, z) = (0.000000, 0.000000, -0.025400) 
              NODE ID: 3 
                 (x, y, z) = (-0.025400, 0.000000, 0.000000) 
          LOOP ID: 6
            EDGE ID: 6
 Range = 3.141593, 4.712389, 0.000000, 0.000000 
              NODE ID: 3 
                 (x, y, z) = (-0.025400, 0.000000, 0.000000) 
              NODE ID: 4 
                 (x, y, z) = (-0.000000, -0.025400, 0.000000) 
            EDGE ID: 16
 Range = 4.712389, 6.283185, 0.000000, 0.000000 
              NODE ID: 6 
                 (x, y, z) = (0.000000, 0.000000, -0.025400) 
              NODE ID: 3 
                 (x, y, z) = (-0.025400, 0.000000, 0.000000) 
            EDGE ID: 17
 Range = 0.000000, 1.570796, 0.000000, 0.000000 
              NODE ID: 6 
                 (x, y, z) = (0.000000, 0.000000, -0.025400) 
            EDGE ID: 11
 Range = 4.712389, 6.283185, 0.000000, 0.000000 
              NODE ID: 6 
                 (x, y, z) = (0.000000, 0.000000, -0.025400) 
              NODE ID: 4 
                 (x, y, z) = (-0.000000, -0.025400, 0.000000) 
          LOOP ID: 7
            EDGE ID: 18
 Range = 0.000000, 1.570796, 0.000000, 0.000000 
              NODE ID: 5 
                 (x, y, z) = (0.025400, 0.000000, 0.000000) 
              NODE ID: 2 
                 (x, y, z) = (0.000000, 0.025400, 0.000000) 
            EDGE ID: 13
 Range = 0.000000, 1.570796, 0.000000, 0.000000 
              NODE ID: 6 
                 (x, y, z) = (0.000000, 0.000000, -0.025400) 
              NODE ID: 5 
                 (x, y, z) = (0.025400, 0.000000, 0.000000) 
            EDGE ID: 19
 Range = 0.000000, 1.570796, 0.000000, 0.000000 
              NODE ID: 6 
                 (x, y, z) = (0.000000, 0.000000, -0.025400) 
            EDGE ID: 14
 Range = 4.712389, 6.283185, 0.000000, 0.000000 
              NODE ID: 6 
                 (x, y, z) = (0.000000, 0.000000, -0.025400) 
              NODE ID: 2 
                 (x, y, z) = (0.000000, 0.025400, 0.000000) 
          LOOP ID: 8
            EDGE ID: 20
 Range = 0.000000, 1.570796, 0.000000, 0.000000 
              NODE ID: 1 
                 (x, y, z) = (0.000000, 0.000000, 0.025400) 
            EDGE ID: 10
 Range = 1.570796, 3.141593, 0.000000, 0.000000 
              NODE ID: 5 
                 (x, y, z) = (0.025400, 0.000000, 0.000000) 
              NODE ID: 1 
                 (x, y, z) = (0.000000, 0.000000, 0.025400) 
            EDGE ID: 18
 Range = 0.000000, 1.570796, 0.000000, 0.000000 
              NODE ID: 5 
                 (x, y, z) = (0.025400, 0.000000, 0.000000) 
              NODE ID: 2 
                 (x, y, z) = (0.000000, 0.025400, 0.000000) 
            EDGE ID: 2
 Range = 0.000000, 1.570796, 0.000000, 0.000000 
              NODE ID: 2 
                 (x, y, z) = (0.000000, 0.025400, 0.000000) 
              NODE ID: 1 
                 (x, y, z) = (0.000000, 0.000000, 0.025400) 

PLEX Input Array Checkouts
 Total Number of Unique Cells    = 32 (24)
 Total Number of Unique Vertices = 18 (12) 
    Node ID = 1 (0)
      (x,y,z) = (0.000000, 0.000000, 0.025400) 
 
    Node ID = 2 (1)
      (x,y,z) = (0.000000, 0.025400, 0.000000) 
 
    Node ID = 3 (2)
      (x,y,z) = (-0.025400, 0.000000, 0.000000) 
 
    Node ID = 4 (3)
      (x,y,z) = (-0.000000, -0.025400, 0.000000) 
 
    Node ID = 5 (4)
      (x,y,z) = (0.025400, 0.000000, 0.000000) 
 
    Node ID = 6 (5)
      (x,y,z) = (0.000000, 0.000000, -0.025400) 
 
    Edge ID = 2 (6) 
      (x,y,z) = (0.000000, 0.017961, 0.017961)
      between (0.000000, 0.025400, 0.000000) and (-0.000000, -0.000000, 0.025400)

    Edge ID = 3 (7) 
      (x,y,z) = (-0.017961, 0.017961, 0.000000)
      between (-0.000000, 0.025400, 0.000000) and (-0.025400, 0.000000, 0.000000)

    Edge ID = 4 (8) 
      (x,y,z) = (-0.017961, 0.000000, 0.017961)
      between (-0.025400, 0.000000, 0.000000) and (0.000000, -0.000000, 0.025400)

    Edge ID = 6 (9) 
      (x,y,z) = (-0.017961, -0.017961, 0.000000)
      between (-0.025400, 0.000000, 0.000000) and (-0.000000, -0.025400, 0.000000)

    Edge ID = 7 (10) 
      (x,y,z) = (-0.000000, -0.017961, 0.017961)
      between (-0.000000, -0.025400, 0.000000) and (0.000000, 0.000000, 0.025400)

    Edge ID = 9 (11) 
      (x,y,z) = (0.017961, -0.017961, 0.000000)
      between (-0.000000, -0.025400, 0.000000) and (0.025400, 0.000000, 0.000000)

    Edge ID = 10 (12) 
      (x,y,z) = (0.017961, 0.000000, 0.017961)
      between (0.025400, 0.000000, 0.000000) and (0.000000, 0.000000, 0.025400)

    Edge ID = 11 (13) 
      (x,y,z) = (-0.000000, -0.017961, -0.017961)
      between (0.000000, 0.000000, -0.025400) and (-0.000000, -0.025400, 0.000000)

    Edge ID = 13 (14) 
      (x,y,z) = (0.017961, 0.000000, -0.017961)
      between (0.000000, 0.000000, -0.025400) and (0.025400, 0.000000, 0.000000)

    Edge ID = 14 (15) 
      (x,y,z) = (0.000000, 0.017961, -0.017961)
      between (-0.000000, -0.000000, -0.025400) and (0.000000, 0.025400, 0.000000)

    Edge ID = 16 (16) 
      (x,y,z) = (-0.017961, 0.000000, -0.017961)
      between (0.000000, -0.000000, -0.025400) and (-0.025400, 0.000000, 0.000000)

    Edge ID = 18 (17) 
      (x,y,z) = (0.017961, 0.017961, 0.000000)
      between (0.025400, 0.000000, 0.000000) and (-0.000000, 0.025400, 0.000000)

    LOOP ID: 1 
      EDGE ID: 1 
        EGDE 1 is DEGENERATE 
      EDGE ID: 2 
      EDGE ID: 3 
      EDGE ID: 4 
      LOOP Corner NODEs Triangle 0 (0, 6, 8)
      LOOP Corner NODEs Triangle 1 (6, 1, 7)
      LOOP Corner NODEs Triangle 2 (8, 7, 2)
      LOOP Corner NODEs Triangle 3 (6, 7, 8)
    LOOP ID: 2 
      EDGE ID: 5 
        EGDE 5 is DEGENERATE 
      EDGE ID: 4 
      EDGE ID: 6 
      EDGE ID: 7 
      LOOP Corner NODEs Triangle 0 (0, 8, 10)
      LOOP Corner NODEs Triangle 1 (8, 2, 9)
      LOOP Corner NODEs Triangle 2 (10, 9, 3)
      LOOP Corner NODEs Triangle 3 (8, 9, 10)
    LOOP ID: 3 
      EDGE ID: 8 
        EGDE 8 is DEGENERATE 
      EDGE ID: 7 
      EDGE ID: 9 
      EDGE ID: 10 
      LOOP Corner NODEs Triangle 0 (0, 10, 12)
      LOOP Corner NODEs Triangle 1 (10, 3, 11)
      LOOP Corner NODEs Triangle 2 (12, 11, 4)
      LOOP Corner NODEs Triangle 3 (10, 11, 12)
    LOOP ID: 4 
      EDGE ID: 9 
      EDGE ID: 11 
      EDGE ID: 12 
        EGDE 12 is DEGENERATE 
      EDGE ID: 13 
      LOOP Corner NODEs Triangle 0 (4, 11, 14)
      LOOP Corner NODEs Triangle 1 (11, 3, 13)
      LOOP Corner NODEs Triangle 2 (14, 13, 5)
      LOOP Corner NODEs Triangle 3 (11, 13, 14)
    LOOP ID: 5 
      EDGE ID: 3 
      EDGE ID: 14 
      EDGE ID: 15 
        EGDE 15 is DEGENERATE 
      EDGE ID: 16 
      LOOP Corner NODEs Triangle 0 (2, 7, 16)
      LOOP Corner NODEs Triangle 1 (7, 1, 15)
      LOOP Corner NODEs Triangle 2 (16, 15, 5)
      LOOP Corner NODEs Triangle 3 (7, 15, 16)
    LOOP ID: 6 
      EDGE ID: 6 
      EDGE ID: 16 
      EDGE ID: 17 
        EGDE 17 is DEGENERATE 
      EDGE ID: 11 
      LOOP Corner NODEs Triangle 0 (3, 9, 13)
      LOOP Corner NODEs Triangle 1 (9, 2, 16)
      LOOP Corner NODEs Triangle 2 (13, 16, 5)
      LOOP Corner NODEs Triangle 3 (9, 16, 13)
    LOOP ID: 7 
      EDGE ID: 18 
      EDGE ID: 13 
      EDGE ID: 19 
        EGDE 19 is DEGENERATE 
      EDGE ID: 14 
      LOOP Corner NODEs Triangle 0 (1, 17, 15)
      LOOP Corner NODEs Triangle 1 (17, 4, 14)
      LOOP Corner NODEs Triangle 2 (15, 14, 5)
      LOOP Corner NODEs Triangle 3 (17, 14, 15)
    LOOP ID: 8 
      EDGE ID: 20 
        EGDE 20 is DEGENERATE 
      EDGE ID: 10 
      EDGE ID: 18 
      EDGE ID: 2 
      LOOP Corner NODEs Triangle 0 (0, 12, 6)
      LOOP Corner NODEs Triangle 1 (12, 4, 17)
      LOOP Corner NODEs Triangle 2 (6, 17, 1)
      LOOP Corner NODEs Triangle 3 (12, 17, 6)
Label 'EGADS Body ID':
[0]: 0 (0)
[0]: 1 (0)
[0]: 2 (0)
[0]: 3 (0)
[0]: 4 (0)
[0]: 5 (0)
[0]: 6 (0)
[0]: 7 (0)
[0]: 8 (0)
[0]: 9 (0)
[0]: 10 (0)
[0]: 11 (0)
[0]: 12 (0)
[0]: 13 (0)
[0]: 14 (0)
[0]: 15 (0)
[0]: 16 (0)
[0]: 17 (0)
[0]: 18 (0)
[0]: 19 (0)
[0]: 20 (0)
[0]: 21 (0)
[0]: 22 (0)
[0]: 23 (0)
[0]: 24 (0)
[0]: 25 (0)
[0]: 26 (0)
[0]: 27 (0)
[0]: 28 (0)
[0]: 29 (0)
[0]: 30 (0)
[0]: 31 (0)
[0]: 32 (0)
[0]: 33 (0)
[0]: 34 (0)
[0]: 35 (0)
[0]: 36 (0)
[0]: 37 (0)
[0]: 38 (0)
[0]: 39 (0)
[0]: 40 (0)
[0]: 41 (0)
[0]: 42 (0)
[0]: 43 (0)
[0]: 44 (0)
[0]: 45 (0)
[0]: 46 (0)
[0]: 47 (0)
[0]: 48 (0)
[0]: 49 (0)
[0]: 50 (0)
[0]: 51 (0)
[0]: 52 (0)
[0]: 53 (0)
[0]: 54 (0)
[0]: 55 (0)
[0]: 56 (0)
[0]: 57 (0)
[0]: 58 (0)
[0]: 59 (0)
[0]: 60 (0)
[0]: 61 (0)
[0]: 62 (0)
[0]: 63 (0)
[0]: 64 (0)
[0]: 65 (0)
[0]: 66 (0)
[0]: 67 (0)
[0]: 68 (0)
[0]: 69 (0)
[0]: 70 (0)
[0]: 71 (0)
[0]: 72 (0)
[0]: 73 (0)
[0]: 74 (0)
[0]: 75 (0)
[0]: 76 (0)
[0]: 77 (0)
[0]: 78 (0)
[0]: 79 (0)
[0]: 80 (0)
[0]: 81 (0)
[0]: 82 (0)
[0]: 83 (0)
[0]: 84 (0)
[0]: 85 (0)
[0]: 86 (0)
[0]: 87 (0)
[0]: 88 (0)
[0]: 89 (0)
[0]: 90 (0)
[0]: 91 (0)
[0]: 92 (0)
[0]: 93 (0)
[0]: 94 (0)
[0]: 95 (0)
[0]: 96 (0)
[0]: 97 (0)
Label 'EGADS Face ID':
[0]: 0 (1)
[0]: 1 (1)
[0]: 2 (1)
[0]: 3 (1)
[0]: 32 (1)
[0]: 33 (1)
[0]: 34 (1)
[0]: 38 (1)
[0]: 39 (1)
[0]: 40 (1)
[0]: 50 (1)
[0]: 51 (1)
[0]: 52 (1)
[0]: 53 (1)
[0]: 54 (1)
[0]: 55 (1)
[0]: 56 (1)
[0]: 57 (1)
[0]: 58 (1)
[0]: 4 (2)
[0]: 5 (2)
[0]: 6 (2)
[0]: 7 (2)
[0]: 32 (2)
[0]: 34 (2)
[0]: 35 (2)
[0]: 40 (2)
[0]: 41 (2)
[0]: 42 (2)
[0]: 52 (2)
[0]: 58 (2)
[0]: 59 (2)
[0]: 60 (2)
[0]: 61 (2)
[0]: 62 (2)
[0]: 63 (2)
[0]: 64 (2)
[0]: 65 (2)
[0]: 8 (3)
[0]: 9 (3)
[0]: 10 (3)
[0]: 11 (3)
[0]: 32 (3)
[0]: 35 (3)
[0]: 36 (3)
[0]: 42 (3)
[0]: 43 (3)
[0]: 44 (3)
[0]: 60 (3)
[0]: 65 (3)
[0]: 66 (3)
[0]: 67 (3)
[0]: 68 (3)
[0]: 69 (3)
[0]: 70 (3)
[0]: 71 (3)
[0]: 72 (3)
[0]: 12 (4)
[0]: 13 (4)
[0]: 14 (4)
[0]: 15 (4)
[0]: 35 (4)
[0]: 36 (4)
[0]: 37 (4)
[0]: 43 (4)
[0]: 45 (4)
[0]: 46 (4)
[0]: 68 (4)
[0]: 71 (4)
[0]: 73 (4)
[0]: 74 (4)
[0]: 75 (4)
[0]: 76 (4)
[0]: 77 (4)
[0]: 78 (4)
[0]: 79 (4)
[0]: 16 (5)
[0]: 17 (5)
[0]: 18 (5)
[0]: 19 (5)
[0]: 33 (5)
[0]: 34 (5)
[0]: 37 (5)
[0]: 39 (5)
[0]: 47 (5)
[0]: 48 (5)
[0]: 54 (5)
[0]: 57 (5)
[0]: 80 (5)
[0]: 81 (5)
[0]: 82 (5)
[0]: 83 (5)
[0]: 84 (5)
[0]: 85 (5)
[0]: 86 (5)
[0]: 20 (6)
[0]: 21 (6)
[0]: 22 (6)
[0]: 23 (6)
[0]: 34 (6)
[0]: 35 (6)
[0]: 37 (6)
[0]: 41 (6)
[0]: 45 (6)
[0]: 48 (6)
[0]: 61 (6)
[0]: 64 (6)
[0]: 75 (6)
[0]: 78 (6)
[0]: 81 (6)
[0]: 86 (6)
[0]: 87 (6)
[0]: 88 (6)
[0]: 89 (6)
[0]: 24 (7)
[0]: 25 (7)
[0]: 26 (7)
[0]: 27 (7)
[0]: 33 (7)
[0]: 36 (7)
[0]: 37 (7)
[0]: 46 (7)
[0]: 47 (7)
[0]: 49 (7)
[0]: 74 (7)
[0]: 79 (7)
[0]: 82 (7)
[0]: 85 (7)
[0]: 90 (7)
[0]: 91 (7)
[0]: 92 (7)
[0]: 93 (7)
[0]: 94 (7)
[0]: 28 (8)
[0]: 29 (8)
[0]: 30 (8)
[0]: 31 (8)
[0]: 32 (8)
[0]: 33 (8)
[0]: 36 (8)
[0]: 38 (8)
[0]: 44 (8)
[0]: 49 (8)
[0]: 50 (8)
[0]: 53 (8)
[0]: 67 (8)
[0]: 72 (8)
[0]: 90 (8)
[0]: 92 (8)
[0]: 95 (8)
[0]: 96 (8)
[0]: 97 (8)
Label 'EGADS Edge ID':
[0]: 32 (2)
[0]: 33 (2)
[0]: 38 (2)
[0]: 50 (2)
[0]: 53 (2)
[0]: 33 (3)
[0]: 34 (3)
[0]: 39 (3)
[0]: 54 (3)
[0]: 57 (3)
[0]: 32 (4)
[0]: 34 (4)
[0]: 40 (4)
[0]: 52 (4)
[0]: 58 (4)
[0]: 34 (6)
[0]: 35 (6)
[0]: 41 (6)
[0]: 61 (6)
[0]: 64 (6)
[0]: 32 (7)
[0]: 35 (7)
[0]: 42 (7)
[0]: 60 (7)
[0]: 65 (7)
[0]: 35 (9)
[0]: 36 (9)
[0]: 43 (9)
[0]: 68 (9)
[0]: 71 (9)
[0]: 32 (10)
[0]: 36 (10)
[0]: 44 (10)
[0]: 67 (10)
[0]: 72 (10)
[0]: 35 (11)
[0]: 37 (11)
[0]: 45 (11)
[0]: 75 (11)
[0]: 78 (11)
[0]: 36 (13)
[0]: 37 (13)
[0]: 46 (13)
[0]: 74 (13)
[0]: 79 (13)
[0]: 33 (14)
[0]: 37 (14)
[0]: 47 (14)
[0]: 82 (14)
[0]: 85 (14)
[0]: 34 (16)
[0]: 37 (16)
[0]: 48 (16)
[0]: 81 (16)
[0]: 86 (16)
[0]: 33 (18)
[0]: 36 (18)
[0]: 49 (18)
[0]: 90 (18)
[0]: 92 (18)
DM Object: DM_0x84000000_0 1 MPI processes
  type: plex
DM_0x84000000_0 in 2 dimensions:
  0-cells: 66
  1-cells: 192
  2-cells: 128
Labels:
  celltype: 3 strata with value/size (1 (192), 3 (128), 0 (66))
  depth: 3 strata with value/size (0 (66), 1 (192), 2 (128))
  EGADS Body ID: 1 strata with value/size (0 (386))
  EGADS Face ID: 8 strata with value/size (1 (61), 2 (61), 3 (61), 4 (61), 5 (61), 6 (61), 7 (61), 8 (61))
  EGADS Edge ID: 12 strata with value/size (2 (9), 3 (9), 4 (9), 6 (9), 7 (9), 9 (9), 10 (9), 11 (9), 13 (9), 14 (9), 16 (9), 18 (9))
